[ {
  "id" : 1,
  "name" : "Petar",
  "surname" : "Petrovic Njegos"
}, {
  "id" : 2,
  "name" : "Ivo",
  "surname" : "Andric"
}, {
  "id" : 3,
  "name" : "Jovan",
  "surname" : "Jovanovic Zamaj"
}, {
  "id" : 4,
  "name" : "Desanka",
  "surname" : "Maksimovic"
}, {
  "id" : 5,
  "name" : "Branislav",
  "surname" : "Nusic"
} ]