[ {
  "id" : 1,
  "name" : "Bubi",
  "surname" : "Bubisa",
  "jmbg" : "1312000450021",
  "birthDate" : [ 2000, 12, 13 ],
  "location" : "Sremsa Mitrovica",
  "address" : "Junaka Milana tepica 5",
  "email" : "bubisa@gmail.com",
  "password" : "555444",
  "status" : false,
  "salary" : 50000.0,
  "type" : "ADMINISTRATOR"
}, {
  "id" : 2,
  "name" : "Aleksa",
  "surname" : "Stevanovic",
  "jmbg" : "1410000150031",
  "birthDate" : [ 2000, 10, 14 ],
  "location" : "Novi Sad",
  "address" : "Puskinova 13",
  "email" : "zumzaludak123@gmail.com",
  "password" : "oop1nmp",
  "status" : false,
  "salary" : 40000.0,
  "type" : "FULL_STACK"
} ]